Forecasterâ€™s toolbox
…
admission_fit %>% augment()

## # A tsibble: 13,692 x 6 [1D]
## # Key:       .model [6]
##    .model time       arrival .fitted .resid .innov
##    <chr>  <date>       <int>   <dbl>  <dbl>  <dbl>
##  1 mean   2010-01-01     355    321.  34.3   34.3 
##  2 mean   2010-01-02     318    321.  -2.73  -2.73
##  3 mean   2010-01-03     283    321. -37.7  -37.7 
##  4 mean   2010-01-04     263    321. -57.7  -57.7 
##  5 mean   2010-01-05     274    321. -46.7  -46.7 
##  6 mean   2010-01-06     258    321. -62.7  -62.7 
##  7 mean   2010-01-07     317    321.  -3.73  -3.73
##  8 mean   2010-01-08     293    321. -27.7  -27.7 
##  9 mean   2010-01-09     296    321. -24.7  -24.7 
## 10 mean   2010-01-10     287    321. -33.7  -33.7 
## # â€¦ with 13,682 more rows
admission_fit %>% select(snaive) %>% report() 

## Series: arrival 
## Model: SNAIVE 
## 
## sigma^2: 932.012

You can extract fitted values and residuals for each model using
augment() . You can then use filter() to extract
information for any model and select .fitted or
.resid

admission_fit %>% augment() 

## # A tsibble: 13,692 x 6 [1D]
## # Key:       .model [6]
##    .model time       arrival .fitted .resid .innov
##    <chr>  <date>       <int>   <dbl>  <dbl>  <dbl>
##  1 mean   2010-01-01     355    321.  34.3   34.3 
##  2 mean   2010-01-02     318    321.  -2.73  -2.73
##  3 mean   2010-01-03     283    321. -37.7  -37.7 
##  4 mean   2010-01-04     263    321. -57.7  -57.7 
##  5 mean   2010-01-05     274    321. -46.7  -46.7 
##  6 mean   2010-01-06     258    321. -62.7  -62.7 
##  7 mean   2010-01-07     317    321.  -3.73  -3.73
##  8 mean   2010-01-08     293    321. -27.7  -27.7 
##  9 mean   2010-01-09     296    321. -24.7  -24.7 
## 10 mean   2010-01-10     287    321. -33.7  -33.7 
## # â€¦ with 13,682 more rows

admission_fit %>% augment() %>% filter(.model=="snaive") %>% select(.fitted)#select fitted values

## # A tsibble: 2,282 x 2 [1D]
##    .fitted time      
##      <dbl> <date>    
##  1      NA 2010-01-01
##  2      NA 2010-01-02
##  3      NA 2010-01-03
##  4      NA 2010-01-04
##  5      NA 2010-01-05
##  6      NA 2010-01-06
##  7      NA 2010-01-07
##  8     355 2010-01-08
##  9     318 2010-01-09
## 10     283 2010-01-10
## # â€¦ with 2,272 more rows

admission_fit %>% augment() %>% filter(.model=="snaive") %>% select(.resid)# select residuals

## # A tsibble: 2,282 x 2 [1D]
##    .resid time      
##     <dbl> <date>    
##  1     NA 2010-01-01
##  2     NA 2010-01-02
##  3     NA 2010-01-03
##  4     NA 2010-01-04
##  5     NA 2010-01-05
##  6     NA 2010-01-06
##  7     NA 2010-01-07
##  8    -62 2010-01-08
##  9    -22 2010-01-09
## 10      4 2010-01-10
## # â€¦ with 2,272 more rows
…
ae_model_tscv %>% augment() 

## # A tsibble: 731,700 x 7 [1D]
## # Key:       .id, .model [360]
##      .id .model time       arrival .fitted .resid .innov
##    <int> <chr>  <date>       <int>   <dbl>  <dbl>  <dbl>
##  1     1 mean   2010-01-01     355    322.  32.9   32.9 
##  2     1 mean   2010-01-02     318    322.  -4.07  -4.07
##  3     1 mean   2010-01-03     283    322. -39.1  -39.1 
##  4     1 mean   2010-01-04     263    322. -59.1  -59.1 
##  5     1 mean   2010-01-05     274    322. -48.1  -48.1 
##  6     1 mean   2010-01-06     258    322. -64.1  -64.1 
##  7     1 mean   2010-01-07     317    322.  -5.07  -5.07
##  8     1 mean   2010-01-08     293    322. -29.1  -29.1 
##  9     1 mean   2010-01-09     296    322. -26.1  -26.1 
## 10     1 mean   2010-01-10     287    322. -35.1  -35.1 
## # â€¦ with 731,690 more rows

forecast for each series

Now, we want to produce forecast for 42 days that is applied to all
739 time series created using TSCV:

ae_fcst_tscv <- ae_model_tscv %>% forecast(h=42)
ae_fcst_tscv #observe ae_fcst_tscv

## # A fable: 15,120 x 5 [1D]
## # Key:     .id, .model [360]
##      .id .model time           arrival .mean
##    <int> <chr>  <date>          <dist> <dbl>
##  1     1 mean   2015-01-01 N(322, 890)  322.
##  2     1 mean   2015-01-02 N(322, 890)  322.
##  3     1 mean   2015-01-03 N(322, 890)  322.
##  4     1 mean   2015-01-04 N(322, 890)  322.
##  5     1 mean   2015-01-05 N(322, 890)  322.
##  6     1 mean   2015-01-06 N(322, 890)  322.
##  7     1 mean   2015-01-07 N(322, 890)  322.
##  8     1 mean   2015-01-08 N(322, 890)  322.
##  9     1 mean   2015-01-09 N(322, 890)  322.
## 10     1 mean   2015-01-10 N(322, 890)  322.
## # â€¦ with 15,110 more rows
…
Extract prediction intervals

Use hilo() to extract prediction intervals for any
coverage probability you are interested in. To be able to see values for
lower bound and upper bound in separate columns, you need to unpack the
prediction intervals using unpack_hilo():

## getting prediction intervals
ae_fcst_tscv %>% hilo(level = 95) %>% unpack_hilo("95%")

## # A tsibble: 15,120 x 7 [1D]
## # Key:       .id, .model [360]
##      .id .model time           arrival .mean `95%_lower` `95%_upper`
##    <int> <chr>  <date>          <dist> <dbl>       <dbl>       <dbl>
##  1     1 mean   2015-01-01 N(322, 890)  322.        264.        381.
##  2     1 mean   2015-01-02 N(322, 890)  322.        264.        381.
##  3     1 mean   2015-01-03 N(322, 890)  322.        264.        381.
##  4     1 mean   2015-01-04 N(322, 890)  322.        264.        381.
##  5     1 mean   2015-01-05 N(322, 890)  322.        264.        381.
##  6     1 mean   2015-01-06 N(322, 890)  322.        264.        381.
##  7     1 mean   2015-01-07 N(322, 890)  322.        264.        381.
##  8     1 mean   2015-01-08 N(322, 890)  322.        264.        381.
##  9     1 mean   2015-01-09 N(322, 890)  322.        264.        381.
## 10     1 mean   2015-01-10 N(322, 890)  322.        264.        381.
## # â€¦ with 15,110 more rows
