Tidy Time Series Analysis
…
#check and fix duplicates
malariake_tsibble%>% 
  duplicated() %>% 
  sum()

[1] 0

Code

## How to remove duplicates if they exist
malariake_tsibble %>% 
  dplyr::distinct()

# A tibble: 540 × 3
       date region        cases
      <mth> <chr>         <dbl>
 1 2014 Jan coast_endemic 98990
 2 2014 Feb coast_endemic 33734
 3 2014 Mar coast_endemic 36031
 4 2014 Apr coast_endemic 35337
 5 2014 May coast_endemic 50626
 6 2014 Jun coast_endemic 45282
 7 2014 Jul coast_endemic 45152
 8 2014 Aug coast_endemic 39172
 9 2014 Sep coast_endemic 30239
10 2014 Oct coast_endemic 29576
# … with 530 more rows
…
#Check gaps in time and fix it
malariake_tsibble %>% 
  scan_gaps()

# A tsibble: 0 x 2 [?]
# Key:       region [0]
# … with 2 variables: region <chr>, date <mth>

Code

#fill gpas if they exist
malariake_tsibble %>% 
  fill_gaps()

# A tsibble: 540 x 3 [1M]
# Key:       region [5]
       date region        cases
      <mth> <chr>         <dbl>
 1 2014 Jan coast_endemic 98990
 2 2014 Feb coast_endemic 33734
 3 2014 Mar coast_endemic 36031
 4 2014 Apr coast_endemic 35337
 5 2014 May coast_endemic 50626
 6 2014 Jun coast_endemic 45282
 7 2014 Jul coast_endemic 45152
 8 2014 Aug coast_endemic 39172
 9 2014 Sep coast_endemic 30239
10 2014 Oct coast_endemic 29576
# … with 530 more rows
…
